module bitbucket.org/evgeniy-pevtsov-dev/taxiapp

go 1.13

require (
	github.com/gin-gonic/gin v1.6.3
	github.com/go-playground/validator/v10 v10.3.0 // indirect
	github.com/golang/protobuf v1.4.2 // indirect
	github.com/gorilla/websocket v1.4.2
	github.com/jinzhu/gorm v1.9.15
	github.com/joho/godotenv v1.3.0
	github.com/json-iterator/go v1.1.10 // indirect
	github.com/modern-go/concurrent v0.0.0-20180306012644-bacd9c7ef1dd // indirect
	github.com/modern-go/reflect2 v1.0.1 // indirect
	golang.org/x/sys v0.0.0-20200625212154-ddb9806d33ae // indirect
	google.golang.org/genproto v0.0.0-20200526211855-cb27e3aa2013
	google.golang.org/protobuf v1.25.0 // indirect
	gopkg.in/olahol/melody.v1 v1.0.0-20170518105555-d52139073376
	gopkg.in/yaml.v2 v2.3.0 // indirect
)
